vendor_id	vendor_name	reviewer_name	reviewer_email	review_id	review_note	review_date	review_stars
platterrio2016020BeerNWine204	Beer N Wine	Martin	martin@me.com	1	For the main course I chose the sublime Emmentaler over the Berner Wurst and the Wiener Schnitzel.	5/8/2014	5
platterrio2016020BeerNWine217	Beer N Wine	Jessica	Jessica@aol.com	2	Absolutely love this place... cozy and warm, with great food and friendly service.	5/8/2014	5
platterrio2016020BeerNWine285	Beer N Wine	Tabatha	tabatha@yahoo.com	3	The quark dumplings were so delicious- how has quark not become a staple in this country!	5/8/2014	4
platterrio2016020BurgerDudes105	Burger Dudes	Sam	bigsam@google.com	4	Austrian meatballs, Spätzle, cheese Spätzle (wow!), sausage platter, goulash, everything is awesome.	5/8/2014	3
platterrio2016020BurgerDudes105	Burger Dudes	Jonathan	digin@outlook.com	5	Bratwurst mit sauerkraut - Very good but partner said sauerkraut wasn't as "pickled" as he's used to (he's German) but I thought it was awesome.	5/8/2014	4
platterrio2016020RioHotDogs124	Rio Hot Dogs	Peter	pgizmo@google.com	6	The food was wonderful, we started with a pretzel and the cheese and fig jam plate.	5/8/2014	3
platterrio2016011BeerNWine136	Beer N Wine	Kristina	takeitonce@google.com	7	Pretzels, sausage sampler, the bacon wrapped sausage, liverwurst, meatballs, salmon---everything was DELiCIOUS!	5/8/2014	2
platterrio2016011BeerNWine236	Beer N Wine	Emma	blueskies@hotmail.com	8	My friend and I came here on a Saturday night, and the place was crowded, with no where to sit.	5/8/2014	5
platterrio2016011RioHotDogs351	Burger Dudes	Martin	martin@me.com	9	For the main course I chose the sublime Emmentaler over the Berner Wurst and the Wiener Schnitzel.	5/8/2014	5
platterrio2016019BeerNWine204	Beer N Wine	Jessica	Jessica@aol.com	10	Absolutely love this place... cozy and warm, with great food and friendly service.	5/8/2014	5
platterrio2016019BeerNWine217	Beer N Wine	Tabatha	tabatha@yahoo.com	11	The quark dumplings were so delicious- how has quark not become a staple in this country!	5/8/2014	4
platterrio2016019BeerNWine285	Beer N Wine	Sam	bigsam@google.com	12	Austrian meatballs, Spätzle, cheese Spätzle (wow!), sausage platter, goulash, everything is awesome.	5/8/2014	3
platterrio2016019BurgerDudes105	Burger Dudes	Jonathan	digin@outlook.com	13	Bratwurst mit sauerkraut - Very good but partner said sauerkraut wasn't as "pickled" as he's used to (he's German) but I thought it was awesome.	5/8/2014	4
platterrio2016019RioHotDogs124	Rio Hot Dogs	Peter	pgizmo@google.com	14	The food was wonderful, we started with a pretzel and the cheese and fig jam plate.	5/8/2014	3
platterrio2016025BeerNWine204	Beer N Wine	Kristina	takeitonce@google.com	15	Pretzels, sausage sampler, the bacon wrapped sausage, liverwurst, meatballs, salmon---everything was DELiCIOUS!	5/8/2014	2
platterrio2016025BeerNWine217	Beer N Wine	Emma	blueskies@hotmail.com	16	My friend and I came here on a Saturday night, and the place was crowded, with no where to sit.	5/8/2014	5
platterrio2016025BeerNWine285	Beer N Wine	Martin	martin@me.com	17	For the main course I chose the sublime Emmentaler over the Berner Wurst and the Wiener Schnitzel.	5/8/2014	5
platterrio2016025BurgerDudes105	Burger Dudes	Jessica	Jessica@aol.com	18	Absolutely love this place... cozy and warm, with great food and friendly service.	5/8/2014	5
platterrio2016025RioHotDogs124	Rio Hot Dogs	Tabatha	tabatha@yahoo.com	19	The quark dumplings were so delicious- how has quark not become a staple in this country!	5/8/2014	4
platterrio2016033BeerNWine204	Beer N Wine	Sam	bigsam@google.com	20	Austrian meatballs, Spätzle, cheese Spätzle (wow!), sausage platter, goulash, everything is awesome.	5/8/2014	3
platterrio2016033BeerNWine217	Beer N Wine	Jonathan	digin@outlook.com	21	Bratwurst mit sauerkraut - Very good but partner said sauerkraut wasn't as "pickled" as he's used to (he's German) but I thought it was awesome.	5/8/2014	4
platterrio2016033BeerNWine285	Beer N Wine	Peter	pgizmo@google.com	22	The food was wonderful, we started with a pretzel and the cheese and fig jam plate.	5/8/2014	3
platterrio2016033BurgerDudes105	Burger Dudes	Kristina	takeitonce@google.com	23	Pretzels, sausage sampler, the bacon wrapped sausage, liverwurst, meatballs, salmon---everything was DELiCIOUS!	5/8/2014	2
platterrio2016033RioHotDogs124	Rio Hot Dogs	Emma	blueskies@hotmail.com	24	My friend and I came here on a Saturday night, and the place was crowded, with no where to sit.	5/8/2014	5
platterrio2016012BeerNWine285	Beer N Wine	Martin	martin@me.com	25	For the main course I chose the sublime Emmentaler over the Berner Wurst and the Wiener Schnitzel.	5/8/2014	5
platterrio2016012BurgerDudes105	Burger Dudes	Jessica	Jessica@aol.com	26	Absolutely love this place... cozy and warm, with great food and friendly service.	5/8/2014	5
platterrio2016012RioHotDogs124	Rio Hot Dogs	Tabatha	tabatha@yahoo.com	27	The quark dumplings were so delicious- how has quark not become a staple in this country!	5/8/2014	4
platterrio2016012Toms'sFreshFruit344	Toms's Fresh Fruit	Sam	bigsam@google.com	28	Austrian meatballs, Spätzle, cheese Spätzle (wow!), sausage platter, goulash, everything is awesome.	5/8/2014	3
platterrio2016012Magge'sDesert220	Magge's Desert	Jonathan	digin@outlook.com	29	Bratwurst mit sauerkraut - Very good but partner said sauerkraut wasn't as "pickled" as he's used to (he's German) but I thought it was awesome.	5/8/2014	4
platterrio2016013BeerNWine285	Beer N Wine	Peter	pgizmo@google.com	30	The food was wonderful, we started with a pretzel and the cheese and fig jam plate.	5/8/2014	3
platterrio2016014BurgerDudes105	Burger Dudes	Kristina	takeitonce@google.com	31	Pretzels, sausage sampler, the bacon wrapped sausage, liverwurst, meatballs, salmon---everything was DELiCIOUS!	5/8/2014	2
platterrio2016015RioHotDogs124	Rio Hot Dogs	Emma	blueskies@hotmail.com	32	My friend and I came here on a Saturday night, and the place was crowded, with no where to sit.	5/8/2014	5
platterrio2016016Toms'sFreshFruit344	Toms's Fresh Fruit	Martin	martin@me.com	33	For the main course I chose the sublime Emmentaler over the Berner Wurst and the Wiener Schnitzel.	5/8/2014	5
platterrio2016017Magge'sDesert220	Magge's Desert	Jessica	Jessica@aol.com	34	Absolutely love this place... cozy and warm, with great food and friendly service.	5/8/2014	5
platterrio2016014BeerNWine285	Beer N Wine	Tabatha	tabatha@yahoo.com	35	The quark dumplings were so delicious- how has quark not become a staple in this country!	5/8/2014	4
platterrio2016015BurgerDudes105	Burger Dudes	Sam	bigsam@google.com	36	Austrian meatballs, Spätzle, cheese Spätzle (wow!), sausage platter, goulash, everything is awesome.	5/8/2014	3
platterrio2016016RioHotDogs124	Rio Hot Dogs	Jonathan	digin@outlook.com	37	Bratwurst mit sauerkraut - Very good but partner said sauerkraut wasn't as "pickled" as he's used to (he's German) but I thought it was awesome.	5/8/2014	4
platterrio2016017Toms'sFreshFruit344	Toms's Fresh Fruit	Peter	pgizmo@google.com	38	The food was wonderful, we started with a pretzel and the cheese and fig jam plate.	5/8/2014	3
platterrio2016018Magge'sDesert220	Magge's Desert	Kristina	takeitonce@google.com	39	Pretzels, sausage sampler, the bacon wrapped sausage, liverwurst, meatballs, salmon---everything was DELiCIOUS!	5/8/2014	2
platterrio2016015BeerNWine285	Beer N Wine	Emma	blueskies@hotmail.com	40	My friend and I came here on a Saturday night, and the place was crowded, with no where to sit.	5/8/2014	5
platterrio2016016BurgerDudes105	Burger Dudes	Martin	martin@me.com	41	For the main course I chose the sublime Emmentaler over the Berner Wurst and the Wiener Schnitzel.	5/8/2014	5
platterrio2016017RioHotDogs124	Rio Hot Dogs	Jessica	Jessica@aol.com	42	Absolutely love this place... cozy and warm, with great food and friendly service.	5/8/2014	5
platterrio2016018Toms'sFreshFruit344	Toms's Fresh Fruit	Tabatha	tabatha@yahoo.com	43	The quark dumplings were so delicious- how has quark not become a staple in this country!	5/8/2014	4
platterrio2016019Magge'sDesert220	Magge's Desert	Sam	bigsam@google.com	44	Austrian meatballs, Spätzle, cheese Spätzle (wow!), sausage platter, goulash, everything is awesome.	5/8/2014	3
platterrio2016016BeerNWine285	Beer N Wine	Jonathan	digin@outlook.com	45	Bratwurst mit sauerkraut - Very good but partner said sauerkraut wasn't as "pickled" as he's used to (he's German) but I thought it was awesome.	5/8/2014	4
platterrio2016017BurgerDudes105	Burger Dudes	Peter	pgizmo@google.com	46	The food was wonderful, we started with a pretzel and the cheese and fig jam plate.	5/8/2014	3
platterrio2016018RioHotDogs124	Rio Hot Dogs	Kristina	takeitonce@google.com	47	Pretzels, sausage sampler, the bacon wrapped sausage, liverwurst, meatballs, salmon---everything was DELiCIOUS!	5/8/2014	2
platterrio2016019Toms'sFreshFruit344	Toms's Fresh Fruit	Emma	blueskies@hotmail.com	48	My friend and I came here on a Saturday night, and the place was crowded, with no where to sit.	5/8/2014	5
platterrio2016020Magge'sDesert220	Magge's Desert	Martin	martin@me.com	49	For the main course I chose the sublime Emmentaler over the Berner Wurst and the Wiener Schnitzel.	5/8/2014	5
platterrio2016017BeerNWine285	Beer N Wine	Jessica	Jessica@aol.com	50	Absolutely love this place... cozy and warm, with great food and friendly service.	5/8/2014	5
platterrio2016018BurgerDudes105	Burger Dudes	Tabatha	tabatha@yahoo.com	51	The quark dumplings were so delicious- how has quark not become a staple in this country!	5/8/2014	4
platterrio2016019RioHotDogs124	Rio Hot Dogs	Sam	bigsam@google.com	52	Austrian meatballs, Spätzle, cheese Spätzle (wow!), sausage platter, goulash, everything is awesome.	5/8/2014	3
platterrio2016020Toms'sFreshFruit344	Toms's Fresh Fruit	Jonathan	digin@outlook.com	53	Bratwurst mit sauerkraut - Very good but partner said sauerkraut wasn't as "pickled" as he's used to (he's German) but I thought it was awesome.	5/8/2014	4
platterrio2016021Magge'sDesert220	Magge's Desert	Peter	pgizmo@google.com	54	The food was wonderful, we started with a pretzel and the cheese and fig jam plate.	5/8/2014	3
platterrio2016021BeerNWine285	Beer N Wine	Kristina	takeitonce@google.com	55	Pretzels, sausage sampler, the bacon wrapped sausage, liverwurst, meatballs, salmon---everything was DELiCIOUS!	5/8/2014	2
platterrio2016022BurgerDudes105	Burger Dudes	Emma	blueskies@hotmail.com	56	My friend and I came here on a Saturday night, and the place was crowded, with no where to sit.	5/8/2014	5
platterrio2016023RioHotDogs124	Rio Hot Dogs	Martin	martin@me.com	57	For the main course I chose the sublime Emmentaler over the Berner Wurst and the Wiener Schnitzel.	5/8/2014	5
platterrio2016024Toms'sFreshFruit344	Toms's Fresh Fruit	Jessica	Jessica@aol.com	58	Absolutely love this place... cozy and warm, with great food and friendly service.	5/8/2014	5
platterrio2016025Magge'sDesert220	Magge's Desert	Tabatha	tabatha@yahoo.com	59	The quark dumplings were so delicious- how has quark not become a staple in this country!	5/8/2014	4
platterrio2016022BeerNWine285	Beer N Wine	Sam	bigsam@google.com	60	Austrian meatballs, Spätzle, cheese Spätzle (wow!), sausage platter, goulash, everything is awesome.	5/8/2014	3
platterrio2016023BurgerDudes105	Burger Dudes	Jonathan	digin@outlook.com	61	Bratwurst mit sauerkraut - Very good but partner said sauerkraut wasn't as "pickled" as he's used to (he's German) but I thought it was awesome.	5/8/2014	4
platterrio2016024RioHotDogs124	Rio Hot Dogs	Peter	pgizmo@google.com	62	The food was wonderful, we started with a pretzel and the cheese and fig jam plate.	5/8/2014	3
platterrio2016025Toms'sFreshFruit344	Toms's Fresh Fruit	Kristina	takeitonce@google.com	63	Pretzels, sausage sampler, the bacon wrapped sausage, liverwurst, meatballs, salmon---everything was DELiCIOUS!	5/8/2014	2
platterrio2016026Magge'sDesert220	Magge's Desert	Emma	blueskies@hotmail.com	64	My friend and I came here on a Saturday night, and the place was crowded, with no where to sit.	5/8/2014	5
platterrio2016023BeerNWine285	Beer N Wine	Martin	martin@me.com	65	For the main course I chose the sublime Emmentaler over the Berner Wurst and the Wiener Schnitzel.	5/8/2014	5
platterrio2016024BurgerDudes105	Burger Dudes	Jessica	Jessica@aol.com	66	Absolutely love this place... cozy and warm, with great food and friendly service.	5/8/2014	5
platterrio2016025RioHotDogs124	Rio Hot Dogs	Tabatha	tabatha@yahoo.com	67	The quark dumplings were so delicious- how has quark not become a staple in this country!	5/8/2014	4
platterrio2016026Toms'sFreshFruit344	Toms's Fresh Fruit	Sam	bigsam@google.com	68	Austrian meatballs, Spätzle, cheese Spätzle (wow!), sausage platter, goulash, everything is awesome.	5/8/2014	3
platterrio2016027Magge'sDesert220	Magge's Desert	Jonathan	digin@outlook.com	69	Bratwurst mit sauerkraut - Very good but partner said sauerkraut wasn't as "pickled" as he's used to (he's German) but I thought it was awesome.	5/8/2014	4
platterrio2016024BeerNWine285	Beer N Wine	Peter	pgizmo@google.com	70	The food was wonderful, we started with a pretzel and the cheese and fig jam plate.	5/8/2014	3
platterrio2016025BurgerDudes105	Burger Dudes	Kristina	takeitonce@google.com	71	Pretzels, sausage sampler, the bacon wrapped sausage, liverwurst, meatballs, salmon---everything was DELiCIOUS!	5/8/2014	2
platterrio2016026RioHotDogs124	Rio Hot Dogs	Emma	blueskies@hotmail.com	72	My friend and I came here on a Saturday night, and the place was crowded, with no where to sit.	5/8/2014	5
platterrio2016027Toms'sFreshFruit344	Toms's Fresh Fruit	Martin	martin@me.com	73	For the main course I chose the sublime Emmentaler over the Berner Wurst and the Wiener Schnitzel.	5/8/2014	5
platterrio2016028Magge'sDesert220	Magge's Desert	Jessica	Jessica@aol.com	74	Absolutely love this place... cozy and warm, with great food and friendly service.	5/8/2014	5
platterrio2016026BeerNWine285	Beer N Wine	Tabatha	tabatha@yahoo.com	75	The quark dumplings were so delicious- how has quark not become a staple in this country!	5/8/2014	4
platterrio2016027BurgerDudes105	Burger Dudes	Sam	bigsam@google.com	76	Austrian meatballs, Spätzle, cheese Spätzle (wow!), sausage platter, goulash, everything is awesome.	5/8/2014	3
platterrio2016028RioHotDogs124	Rio Hot Dogs	Jonathan	digin@outlook.com	77	Bratwurst mit sauerkraut - Very good but partner said sauerkraut wasn't as "pickled" as he's used to (he's German) but I thought it was awesome.	5/8/2014	4
platterrio2016029Toms'sFreshFruit344	Toms's Fresh Fruit	Peter	pgizmo@google.com	78	The food was wonderful, we started with a pretzel and the cheese and fig jam plate.	5/8/2014	3
platterrio2016030Magge'sDesert220	Magge's Desert	Kristina	takeitonce@google.com	79	Pretzels, sausage sampler, the bacon wrapped sausage, liverwurst, meatballs, salmon---everything was DELiCIOUS!	5/8/2014	2
platterrio2016027BeerNWine285	Beer N Wine	Emma	blueskies@hotmail.com	80	My friend and I came here on a Saturday night, and the place was crowded, with no where to sit.	5/8/2014	5
platterrio2016028BurgerDudes105	Burger Dudes	Martin	martin@me.com	81	For the main course I chose the sublime Emmentaler over the Berner Wurst and the Wiener Schnitzel.	5/8/2014	5
platterrio2016029RioHotDogs124	Rio Hot Dogs	Jessica	Jessica@aol.com	82	Absolutely love this place... cozy and warm, with great food and friendly service.	5/8/2014	5
platterrio2016030Toms'sFreshFruit344	Toms's Fresh Fruit	Tabatha	tabatha@yahoo.com	83	The quark dumplings were so delicious- how has quark not become a staple in this country!	5/8/2014	4
platterrio2016031Magge'sDesert220	Magge's Desert	Sam	bigsam@google.com	84	Austrian meatballs, Spätzle, cheese Spätzle (wow!), sausage platter, goulash, everything is awesome.	5/8/2014	3
platterrio2016028BeerNWine285	Beer N Wine	Jonathan	digin@outlook.com	85	Bratwurst mit sauerkraut - Very good but partner said sauerkraut wasn't as "pickled" as he's used to (he's German) but I thought it was awesome.	5/8/2014	4
platterrio2016029BurgerDudes105	Burger Dudes	Peter	pgizmo@google.com	86	The food was wonderful, we started with a pretzel and the cheese and fig jam plate.	5/8/2014	3
platterrio2016030RioHotDogs124	Rio Hot Dogs	Kristina	takeitonce@google.com	87	Pretzels, sausage sampler, the bacon wrapped sausage, liverwurst, meatballs, salmon---everything was DELiCIOUS!	5/8/2014	2
platterrio2016031Toms'sFreshFruit344	Toms's Fresh Fruit	Emma	blueskies@hotmail.com	88	My friend and I came here on a Saturday night, and the place was crowded, with no where to sit.	5/8/2014	5
platterrio2016032Magge'sDesert220	Magge's Desert	Martin	martin@me.com	89	For the main course I chose the sublime Emmentaler over the Berner Wurst and the Wiener Schnitzel.	5/8/2014	5
platterrio2016029BeerNWine285	Beer N Wine	Jessica	Jessica@aol.com	90	Absolutely love this place... cozy and warm, with great food and friendly service.	5/8/2014	5
platterrio2016030BurgerDudes105	Burger Dudes	Tabatha	tabatha@yahoo.com	91	The quark dumplings were so delicious- how has quark not become a staple in this country!	5/8/2014	4
platterrio2016031RioHotDogs124	Rio Hot Dogs	Sam	bigsam@google.com	92	Austrian meatballs, Spätzle, cheese Spätzle (wow!), sausage platter, goulash, everything is awesome.	5/8/2014	3
platterrio2016032Toms'sFreshFruit344	Toms's Fresh Fruit	Jonathan	digin@outlook.com	93	Bratwurst mit sauerkraut - Very good but partner said sauerkraut wasn't as "pickled" as he's used to (he's German) but I thought it was awesome.	5/8/2014	4
platterrio2016033Magge'sDesert220	Magge's Desert	Peter	pgizmo@google.com	94	The food was wonderful, we started with a pretzel and the cheese and fig jam plate.	5/8/2014	3
platterrio2016030BeerNWine285	Beer N Wine	Kristina	takeitonce@google.com	95	Pretzels, sausage sampler, the bacon wrapped sausage, liverwurst, meatballs, salmon---everything was DELiCIOUS!	5/8/2014	2
platterrio2016031BurgerDudes105	Burger Dudes	Emma	blueskies@hotmail.com	96	My friend and I came here on a Saturday night, and the place was crowded, with no where to sit.	5/8/2014	5
platterrio2016032RioHotDogs124	Rio Hot Dogs	Martin	martin@me.com	97	For the main course I chose the sublime Emmentaler over the Berner Wurst and the Wiener Schnitzel.	5/8/2014	5
platterrio2016033Toms'sFreshFruit344	Toms's Fresh Fruit	Jessica	Jessica@aol.com	98	Absolutely love this place... cozy and warm, with great food and friendly service.	5/8/2014	5
platterrio2016034Magge'sDesert220	Magge's Desert	Tabatha	tabatha@yahoo.com	99	The quark dumplings were so delicious- how has quark not become a staple in this country!	5/8/2014	4
platterrio2016031BeerNWine285	Beer N Wine	Sam	bigsam@google.com	100	Austrian meatballs, Spätzle, cheese Spätzle (wow!), sausage platter, goulash, everything is awesome.	5/8/2014	3
platterrio2016032BurgerDudes105	Burger Dudes	Jonathan	digin@outlook.com	101	Bratwurst mit sauerkraut - Very good but partner said sauerkraut wasn't as "pickled" as he's used to (he's German) but I thought it was awesome.	5/8/2014	4
platterrio2016033RioHotDogs124	Rio Hot Dogs	Peter	pgizmo@google.com	102	The food was wonderful, we started with a pretzel and the cheese and fig jam plate.	5/8/2014	3
platterrio2016034Toms'sFreshFruit344	Toms's Fresh Fruit	Kristina	takeitonce@google.com	103	Pretzels, sausage sampler, the bacon wrapped sausage, liverwurst, meatballs, salmon---everything was DELiCIOUS!	5/8/2014	2
platterrio2016035Magge'sDesert220	Magge's Desert	Emma	blueskies@hotmail.com	104	My friend and I came here on a Saturday night, and the place was crowded, with no where to sit.	5/8/2014	5
platterrio2016032BeerNWine285	Beer N Wine	Martin	martin@me.com	105	For the main course I chose the sublime Emmentaler over the Berner Wurst and the Wiener Schnitzel.	5/8/2014	5
platterrio2016033BurgerDudes105	Burger Dudes	Jessica	Jessica@aol.com	106	Absolutely love this place... cozy and warm, with great food and friendly service.	5/8/2014	5
platterrio2016034RioHotDogs124	Rio Hot Dogs	Tabatha	tabatha@yahoo.com	107	The quark dumplings were so delicious- how has quark not become a staple in this country!	5/8/2014	4
platterrio2016035Toms'sFreshFruit344	Toms's Fresh Fruit	Sam	bigsam@google.com	108	Austrian meatballs, Spätzle, cheese Spätzle (wow!), sausage platter, goulash, everything is awesome.	5/8/2014	3
platterrio2016036Magge'sDesert220	Magge's Desert	Jonathan	digin@outlook.com	109	Bratwurst mit sauerkraut - Very good but partner said sauerkraut wasn't as "pickled" as he's used to (he's German) but I thought it was awesome.	5/8/2014	4
platterrio2016034BeerNWine285	Beer N Wine	Peter	pgizmo@google.com	110	The food was wonderful, we started with a pretzel and the cheese and fig jam plate.	5/8/2014	3
platterrio2016035BurgerDudes105	Burger Dudes	Kristina	takeitonce@google.com	111	Pretzels, sausage sampler, the bacon wrapped sausage, liverwurst, meatballs, salmon---everything was DELiCIOUS!	5/8/2014	2
platterrio2016036RioHotDogs124	Rio Hot Dogs	Emma	blueskies@hotmail.com	112	My friend and I came here on a Saturday night, and the place was crowded, with no where to sit.	5/8/2014	5
platterrio2016037Toms'sFreshFruit344	Toms's Fresh Fruit	Martin	martin@me.com	113	For the main course I chose the sublime Emmentaler over the Berner Wurst and the Wiener Schnitzel.	5/8/2014	5
platterrio2016038Magge'sDesert220	Magge's Desert	Jessica	Jessica@aol.com	114	Absolutely love this place... cozy and warm, with great food and friendly service.	5/8/2014	5
platterrio2016035BeerNWine285	Beer N Wine	Tabatha	tabatha@yahoo.com	115	The quark dumplings were so delicious- how has quark not become a staple in this country!	5/8/2014	4
platterrio2016036BurgerDudes105	Burger Dudes	Sam	bigsam@google.com	116	Austrian meatballs, Spätzle, cheese Spätzle (wow!), sausage platter, goulash, everything is awesome.	5/8/2014	3
platterrio2016037RioHotDogs124	Rio Hot Dogs	Jonathan	digin@outlook.com	117	Bratwurst mit sauerkraut - Very good but partner said sauerkraut wasn't as "pickled" as he's used to (he's German) but I thought it was awesome.	5/8/2014	4
platterrio2016038Toms'sFreshFruit344	Toms's Fresh Fruit	Peter	pgizmo@google.com	118	The food was wonderful, we started with a pretzel and the cheese and fig jam plate.	5/8/2014	3
platterrio2016039Magge'sDesert220	Magge's Desert	Kristina	takeitonce@google.com	119	Pretzels, sausage sampler, the bacon wrapped sausage, liverwurst, meatballs, salmon---everything was DELiCIOUS!	5/8/2014	2
platterrio2016036BeerNWine285	Beer N Wine	Emma	blueskies@hotmail.com	120	My friend and I came here on a Saturday night, and the place was crowded, with no where to sit.	5/8/2014	5
platterrio2016037BurgerDudes105	Burger Dudes	Martin	martin@me.com	121	For the main course I chose the sublime Emmentaler over the Berner Wurst and the Wiener Schnitzel.	5/8/2014	5
platterrio2016038RioHotDogs124	Rio Hot Dogs	Jessica	Jessica@aol.com	122	Absolutely love this place... cozy and warm, with great food and friendly service.	5/8/2014	5
platterrio2016039Toms'sFreshFruit344	Toms's Fresh Fruit	Tabatha	tabatha@yahoo.com	123	The quark dumplings were so delicious- how has quark not become a staple in this country!	5/8/2014	4
platterrio2016040Magge'sDesert220	Magge's Desert	Sam	bigsam@google.com	124	Austrian meatballs, Spätzle, cheese Spätzle (wow!), sausage platter, goulash, everything is awesome.	5/8/2014	3
platterrio2016037BeerNWine285	Beer N Wine	Jonathan	digin@outlook.com	125	Bratwurst mit sauerkraut - Very good but partner said sauerkraut wasn't as "pickled" as he's used to (he's German) but I thought it was awesome.	5/8/2014	4
platterrio2016038BurgerDudes105	Burger Dudes	Peter	pgizmo@google.com	126	The food was wonderful, we started with a pretzel and the cheese and fig jam plate.	5/8/2014	3
platterrio2016039RioHotDogs124	Rio Hot Dogs	Kristina	takeitonce@google.com	127	Pretzels, sausage sampler, the bacon wrapped sausage, liverwurst, meatballs, salmon---everything was DELiCIOUS!	5/8/2014	2
platterrio2016040Toms'sFreshFruit344	Toms's Fresh Fruit	Emma	blueskies@hotmail.com	128	My friend and I came here on a Saturday night, and the place was crowded, with no where to sit.	5/8/2014	5
platterrio2016041Magge'sDesert220	Magge's Desert	Peter	pgizmo@google.com	129	The food was wonderful, we started with a pretzel and the cheese and fig jam plate.	5/8/2014	3
platterrio2016038BeerNWine285	Beer N Wine	Kristina	takeitonce@google.com	130	Pretzels, sausage sampler, the bacon wrapped sausage, liverwurst, meatballs, salmon---everything was DELiCIOUS!	5/8/2014	2
platterrio2016039BurgerDudes105	Burger Dudes	Emma	blueskies@hotmail.com	131	My friend and I came here on a Saturday night, and the place was crowded, with no where to sit.	5/8/2014	5
platterrio2016040RioHotDogs124	Rio Hot Dogs	Martin	martin@me.com	132	For the main course I chose the sublime Emmentaler over the Berner Wurst and the Wiener Schnitzel.	5/8/2014	5
platterrio2016041Toms'sFreshFruit344	Toms's Fresh Fruit	Jessica	Jessica@aol.com	133	Absolutely love this place... cozy and warm, with great food and friendly service.	5/8/2014	5
platterrio2016042Magge'sDesert220	Magge's Desert	Tabatha	tabatha@yahoo.com	134	The quark dumplings were so delicious- how has quark not become a staple in this country!	5/8/2014	4